// Jest Snapshot v1, https://goo.gl/fbAQLP

exports[`BlogList should render given items 1`] = `
<div>
  <Link
    replace={false}
    to="/create"
  >
    <Button
      onClick={[Function]}
      type="primary"
    >
      Add post
    </Button>
  </Link>
  <hr />
  <InfiniteScroll
    loadMore={[Function]}
    threshold={100}
  >
    <Post
      key="1"
      onDelete={[Function]}
      post={
        Object {
          "body": "Test body",
          "id": 1,
          "title": "Test title",
          "userId": 2,
        }
      }
    />
    <Post
      key="1"
      onDelete={[Function]}
      post={
        Object {
          "body": "Test body",
          "id": 1,
          "title": "Test title",
          "userId": 2,
        }
      }
    />
    <Post
      key="1"
      onDelete={[Function]}
      post={
        Object {
          "body": "Test body",
          "id": 1,
          "title": "Test title",
          "userId": 2,
        }
      }
    />
    <Post
      key="1"
      onDelete={[Function]}
      post={
        Object {
          "body": "Test body",
          "id": 1,
          "title": "Test title",
          "userId": 2,
        }
      }
    />
    <Post
      key="1"
      onDelete={[Function]}
      post={
        Object {
          "body": "Test body",
          "id": 1,
          "title": "Test title",
          "userId": 2,
        }
      }
    />
    <Post
      key="1"
      onDelete={[Function]}
      post={
        Object {
          "body": "Test body",
          "id": 1,
          "title": "Test title",
          "userId": 2,
        }
      }
    />
    <Post
      key="1"
      onDelete={[Function]}
      post={
        Object {
          "body": "Test body",
          "id": 1,
          "title": "Test title",
          "userId": 2,
        }
      }
    />
    <Post
      key="1"
      onDelete={[Function]}
      post={
        Object {
          "body": "Test body",
          "id": 1,
          "title": "Test title",
          "userId": 2,
        }
      }
    />
    <Post
      key="1"
      onDelete={[Function]}
      post={
        Object {
          "body": "Test body",
          "id": 1,
          "title": "Test title",
          "userId": 2,
        }
      }
    />
    <Post
      key="1"
      onDelete={[Function]}
      post={
        Object {
          "body": "Test body",
          "id": 1,
          "title": "Test title",
          "userId": 2,
        }
      }
    />
  </InfiniteScroll>
</div>
`;
